net
{
    node_size = (80 40);
    HR_realname_ojSeeEnemy1 = "ojSeeEnemy1";
    HR_realname_ojSeeEnemy2 = "ojSeeEnemy2";
    HR_realname_sjUnderAttack2 = "sjUnderAttack2";
    HR_realname_aj1 = "aj1";
    HR_realname_aj2 = "aj2";
    HR_realname_u1 = "u1";
    HR_realname_u2 = "u2";
    HR_realname_sjUnderAttack1 = "sjUnderAttack1";
    HR_Color_DiscreteFunction = "5";
    HR_Color_Function = "4";
    HR_Monitor_Mean_Variance = "1";
    HR_Desc = "";
    HR_OOBN_CheckConsistency = "1";
    HR_OOBN_FitExpand = "1";
    HR_Zoom_ZoomFactor = "100";
    HR_Groups_GroupColors = "";
    HR_Groups_GroupNames = "";
    HR_Groups_UserGroupsNo = "0";
    HR_Color_Interface = "21";
    HR_Color_Instance = "0";
    HR_Color_Utility = "36";
    HR_Color_Decision = "17";
    HR_Color_ContinuousChance = "48";
    HR_Color_DiscreteChance = "16";
    HR_Monitor_InitSD = "2";
    HR_Monitor_Utility_Arrange = "0";
    HR_Monitor_Chance_Utility = "1";
    HR_Monitor_InitStates = "5";
    HR_Monitor_OpenGraph = "0";
    HR_Monitor_GraphPrecision = "100";
    HR_Monitor_AutoUpdGraph = "0";
    HR_Compile_MaxMinimalSeparators = "100000";
    HR_Compile_ApproxEpsilon = "1.0E-5";
    HR_Compile_Approximate = "0";
    HR_Compile_SaveToMemory = "0";
    HR_Compile_Compress = "0";
    HR_Compile_TriangMethod = "0";
    HR_Propagate_AutoNormal = "1";
    HR_Propagate_AutoSum = "1";
    HR_Propagate_Auto = "1";
    HR_Font_Italic = "0";
    HR_Font_Weight = "400";
    HR_Font_Size = "-12";
    HR_Font_Name = "javax.swing.plaf.FontUIResource[family=Tahoma,name=Tahoma,style=plain,size=11]";
    HR_Grid_GridShow = "0";
    HR_Grid_GridSnap = "0";
    HR_Grid_Y = "40";
    HR_Grid_X = "40";
}

node sjUnderAttack1
{
    label = "";
    position = (144 103);
    states = ("UnderAttack" "NotUnderAttack");
    HR_State_3 = "";
    HR_State_2 = "";
    HR_State_0 = "";
    HR_State_1 = "";
    HR_Desc = "";
    HR_NodeSize = "(112, 42)";
    HR_LinkControlPoints = "";
    HR_LinkMode = "[oSeeEnemyi0:0][ui0:0][oSeeEnemyj0:0][sUnderAttacki1:0][oSeeEnemyj0m0_1:0][oSeeEnemy0:0][sUnderAttack1:0][u0:0][ojSeeEnemy0:0][sjUnderAttack1:0][ojSeeEnemy1:0][sjUnderAttack2:0][u1:0]";
    HR_Group = "0";
}

utility u2
{
    label = "";
    position = (656 150);
    HR_Desc = "";
    HR_Group = "0";
}

utility u1
{
    label = "";
    position = (306 163);
    HR_Desc = "";
    HR_Group = "0";
}

decision aj2
{
    label = "";
    position = (656 244);
    states = ("Attack" "Escape" "Nothing");
    HR_State_2 = "";
    HR_LinkControlPoints = "";
    HR_Desc = "";
    HR_State_1 = "";
    HR_State_0 = "";
    HR_LinkMode = "[ui0:0][oSeeEnemyi1:0][sUnderAttacki1:0][sUnderAttackj1:0][ui1:0][oSeeEnemyi1_1:0][sUnderAttackj1_1:0][sUnderAttacki1_1:0][oSeeEnemyi2:0][sUnderAttackj2:0][sUnderAttacki2:0][sUnderAttack2:0][u1:0][oSeeEnemy2:0][u2:0]";
    HR_Group = "0";
}

decision aj1
{
    label = "";
    position = (306 245);
    states = ("Attack" "Escape" "Nothing");
    HR_State_2 = "";
    HR_State_0 = "";
    HR_State_1 = "";
    HR_Desc = "";
    HR_LinkControlPoints = "";
    HR_LinkMode = "[ui0:0][oSeeEnemyi1:0][sUnderAttacki1:0][sUnderAttackj1:0][sUnderAttack1:0][u0:0][a1:0][sjUnderAttack1:0][aj1:0][ojSeeEnemy1:0][sjUnderAttack2:0][aj2:0][u1:0][ojSeeEnemy2:0]";
    HR_Group = "0";
}

node sjUnderAttack2
{
    label = "";
    position = (502 104);
    states = ("Under Attack" "NotunderAttack");
    HR_State_3 = "";
    HR_State_2 = "";
    HR_NodeSize = "(112, 42)";
    HR_Desc = "";
    HR_State_1 = "";
    HR_State_0 = "";
    HR_LinkControlPoints = "";
    HR_LinkMode = "[oSeeEnemyi0:0][ui0:0][oSeeEnemyj0:0][sUnderAttacki1:0][oSeeEnemyi1:0][ui1:0][sUnderAttacki1_1:0][sUnderAttacki2:0][aj0_1:0][oSeeEnemyj1:0][oSeeEnemy1:0][sUnderAttack2:0][u1:0][ojSeeEnemy1:0][ojSeeEnemy2:0][u2:0]";
    HR_Group = "0";
}

node ojSeeEnemy2
{
    label = "";
    position = (501 175);
    states = ("SeeNear" "SeeFar" "DontSee");
    HR_State_2 = "";
    HR_NodeSize = "(104, 42)";
    HR_Desc = "";
    HR_State_1 = "";
    HR_State_0 = "";
    HR_LinkMode = "[ai0:0][ai1:0][a1:0][aj1:0][aj2:0]";
    HR_Group = "0";
}

node ojSeeEnemy1
{
    label = "";
    position = (144 176);
    states = ("SeeNear" "SeeFar" "DontSee");
    HR_State_2 = "";
    HR_State_0 = "";
    HR_State_1 = "";
    HR_Desc = "";
    HR_NodeSize = "(104, 42)";
    HR_LinkControlPoints = "";
    HR_LinkMode = "[ai0:0][a0:0][a1:0][aj0:0][aj1:0]";
    HR_Group = "0";
}

potential (sjUnderAttack1)
{
    data = ( 0.5 0.5 );
}

potential (u2 | aj2 sjUnderAttack2)
{
    data
     = (( -1	%  aj2=Attack  sjUnderAttack2=Under Attack
	  10 )	%  aj2=Attack  sjUnderAttack2=NotunderAttack
	( 10	%  aj2=Escape  sjUnderAttack2=Under Attack
	  -1 )	%  aj2=Escape  sjUnderAttack2=NotunderAttack
	( -10	%  aj2=Nothing  sjUnderAttack2=Under Attack
	  -1 ));	%  aj2=Nothing  sjUnderAttack2=NotunderAttack
}

potential (u1 | aj1 sjUnderAttack1)
{
    data
     = (( -1	%  aj1=Attack  sjUnderAttack1=UnderAttack
	  10 )	%  aj1=Attack  sjUnderAttack1=NotUnderAttack
	( 10	%  aj1=Escape  sjUnderAttack1=UnderAttack
	  -1 )	%  aj1=Escape  sjUnderAttack1=NotUnderAttack
	( -10	%  aj1=Nothing  sjUnderAttack1=UnderAttack
	  -1 ));	%  aj1=Nothing  sjUnderAttack1=NotUnderAttack
}

potential (aj2 | aj1 ojSeeEnemy2)
{
    data
     = ((( 0.333333 0.333333 0.333333 )	%  aj1=Attack  ojSeeEnemy2=SeeNear
	 ( 0.333333 0.333333 0.333333 )	%  aj1=Attack  ojSeeEnemy2=SeeFar
	 ( 0.333333 0.333333 0.333333 ))	%  aj1=Attack  ojSeeEnemy2=DontSee
	(( 0.333333 0.333333 0.333333 )	%  aj1=Escape  ojSeeEnemy2=SeeNear
	 ( 0.333333 0.333333 0.333333 )	%  aj1=Escape  ojSeeEnemy2=SeeFar
	 ( 0.333333 0.333333 0.333333 ))	%  aj1=Escape  ojSeeEnemy2=DontSee
	(( 0.333333 0.333333 0.333333 )	%  aj1=Nothing  ojSeeEnemy2=SeeNear
	 ( 0.333333 0.333333 0.333333 )	%  aj1=Nothing  ojSeeEnemy2=SeeFar
	 ( 0.333333 0.333333 0.333333 )));	%  aj1=Nothing  ojSeeEnemy2=DontSee
}

potential (aj1 | ojSeeEnemy1)
{
    data
     = (( 0.333333 0.333333 0.333333 )	%  ojSeeEnemy1=SeeNear
	( 0.333333 0.333333 0.333333 )	%  ojSeeEnemy1=SeeFar
	( 0.333333 0.333333 0.333333 ));	%  ojSeeEnemy1=DontSee
}

potential (sjUnderAttack2 | aj1 sjUnderAttack1)
{
    data
     = ((( 0.6 0.4 )	%  aj1=Attack  sjUnderAttack1=UnderAttack
	 ( 0.4 0.6 ))	%  aj1=Attack  sjUnderAttack1=NotUnderAttack
	(( 0.4 0.6 )	%  aj1=Escape  sjUnderAttack1=UnderAttack
	 ( 0.3 0.7 ))	%  aj1=Escape  sjUnderAttack1=NotUnderAttack
	(( 0.5 0.5 )	%  aj1=Nothing  sjUnderAttack1=UnderAttack
	 ( 0.5 0.5 )));	%  aj1=Nothing  sjUnderAttack1=NotUnderAttack
}

potential (ojSeeEnemy2 | aj1 sjUnderAttack2)
{
    data
     = ((( 0.7 0.3 0 )	%  aj1=Attack  sjUnderAttack2=Under Attack
	 ( 0.5 0.3 0.2 ))	%  aj1=Attack  sjUnderAttack2=NotunderAttack
	(( 0.5 0.3 0.2 )	%  aj1=Escape  sjUnderAttack2=Under Attack
	 ( 0.2 0.2 0.6 ))	%  aj1=Escape  sjUnderAttack2=NotunderAttack
	(( 0.8 0.1 0.1 )	%  aj1=Nothing  sjUnderAttack2=Under Attack
	 ( 0.1 0.3 0.6 )));	%  aj1=Nothing  sjUnderAttack2=NotunderAttack
}

potential (ojSeeEnemy1 | sjUnderAttack1)
{
    data
     = (( 0.8 0.2 0 )	%  sjUnderAttack1=UnderAttack
	( 0.7 0.3 0 ));	%  sjUnderAttack1=NotUnderAttack
}
