net
{
    node_size = (80 40);
    HR_ToolBar_CDVT = "0";
    HR_Html_Desc = "0";
    HR_Groups_IDs = "";
    HR_Node_Label_Style = "0";
    HR_Monitor_Utility_Arrange = "0";
    HR_Monitor_Chance_Utility = "1";
    HR_Compile_SaveToMemory = "0";
    HR_Desc = "";
    HR_OOBN_CheckConsistency = "1";
    HR_OOBN_FitExpand = "1";
    HR_Zoom_ZoomFactor = "100";
    HR_Groups_GroupColors = "";
    HR_Groups_GroupNames = "";
    HR_Groups_UserGroupsNo = "0";
    HR_Color_Interface = "-1";
    HR_Color_Instance = "-1";
    HR_Color_Utility = "36";
    HR_Color_Decision = "17";
    HR_Color_ContinuousChance = "-1";
    HR_Color_DiscreteChance = "16";
    HR_Monitor_InitSD = "2";
    HR_Monitor_InitStates = "5";
    HR_Monitor_OpenGraph = "0";
    HR_Monitor_GraphPrecision = "100";
    HR_Monitor_AutoUpdGraph = "0";
    HR_Compile_MaxMinimalSeparators = "100000";
    HR_Compile_ApproxEpsilon = "1.0E-5";
    HR_Compile_Approximate = "0";
    HR_Compile_Compress = "0";
    HR_Compile_TriangMethod = "0";
    HR_Propagate_AutoNormal = "1";
    HR_Propagate_AutoSum = "1";
    HR_Propagate_Auto = "1";
    HR_Font_Italic = "0";
    HR_Font_Weight = "400";
    HR_Font_Size = "-12";
    HR_Font_Name = "Arial";
    HR_Grid_GridShow = "0";
    HR_Grid_GridSnap = "0";
    HR_Grid_Y = "40";
    HR_Grid_X = "40";
}

node oj3
{
    label = "";
    position = (991 74);
    states = ("GL" "GR");
    HR_HTML_Desc = "";
    HR_LinkMode = "[C9_1_1:0][Mod3:0][mod3:0]";
    HR_State_5 = "";
    HR_State_4 = "";
    HR_State_3 = "";
    HR_State_2 = "";
    HR_State_0 = "";
    HR_State_1 = "";
    HR_Desc = "";
    HR_Group = "0";
}

node oj2
{
    label = "";
    position = (571 81);
    states = ("GL" "GR");
    HR_HTML_Desc = "";
    HR_LinkMode = "[C9_1:0][Mod2:0][mod2:0]";
    HR_State_5 = "";
    HR_State_4 = "";
    HR_State_3 = "";
    HR_State_2 = "";
    HR_Group = "0";
    HR_Desc = "";
    HR_State_1 = "";
    HR_State_0 = "";
}

node aj3
{
    label = "";
    position = (1185 190);
    states = ("OL" "OR" "L");
    HR_HTML_Desc = "";
    HR_LinkMode = "[U1:0][C1_1_1:0][D2:0][D1:0][U7:0][C6_1:0][C4_1:0][u3:0]";
    HR_Desc = "";
    HR_State_2 = "";
    HR_State_1 = "";
    HR_State_0 = "";
    HR_Group = "0";
}

node mod3
{
    label = "";
    position = (1072 133);
    states = ("0");
    HR_State_20 = "";
    HR_State_19 = "";
    HR_State_18 = "";
    HR_LinkMode = "[C1_1_1:0][C10_1:0][C10:0][OD3:0][OD1:0][C10_1_1:0][Dj3:0][aj3:0]";
    HR_HTML_Desc = "";
    HR_State_17 = "";
    HR_State_16 = "";
    HR_State_15 = "";
    HR_State_14 = "";
    HR_State_13 = "";
    HR_State_12 = "";
    HR_State_11 = "";
    HR_State_10 = "";
    HR_State_9 = "";
    HR_State_8 = "";
    HR_State_7 = "";
    HR_State_6 = "";
    HR_State_5 = "";
    HR_State_4 = "";
    HR_State_3 = "";
    HR_State_2 = "";
    HR_Desc = "";
    HR_State_1 = "";
    HR_State_0 = "";
    HR_Group = "0";
}

node mod2
{
    label = "";
    position = (641 132);
    states = ("0");
    HR_LinkControlPoints = "";
    HR_State_11 = "";
    HR_State_10 = "";
    HR_State_9 = "";
    HR_LinkMode = "[C9_1_1:0][C9_1:0][C1_1:0][OD1:0][OD3:0][C10:0][C10_1:0][Mod3:0][Dj2:0][Oj3:0][aj2:0][oj3:0][mod3:0]";
    HR_HTML_Desc = "";
    HR_State_8 = "";
    HR_State_7 = "";
    HR_State_6 = "";
    HR_State_5 = "";
    HR_State_4 = "";
    HR_State_3 = "";
    HR_State_2 = "";
    HR_State_0 = "";
    HR_State_1 = "";
    HR_Desc = "";
    HR_Group = "0";
}

node aj2
{
    label = "";
    position = (736 182);
    states = ("OL" "OR" "L");
    HR_HTML_Desc = "";
    HR_LinkMode = "[U7:0][C6_1:0][C9_1_1:0][C1_1:0][C4_1:0][D1:0][D2:0][S3:0][O3:0][Mod3:0][Oj3:0][u2:0][s3:0][o3:0][mod3:0][oj3:0][oi3:0]";
    HR_State_0 = "";
    HR_State_1 = "";
    HR_State_2 = "";
    HR_Desc = "";
    HR_Group = "0";
}

node oi3
{
    label = "";
    position = (992 383);
    states = ("GLCL" "GLCR" "GLS" "GRCL" "GRCR" "GRS");
    HR_HTML_Desc = "";
    HR_LinkMode = "[D1_1:0][S1_1:0][S:0][D:0][C2:0][D1:0][D2:0][D5:0][D5_1:0][D3:0][a3:0][ai3:0]";
    HR_State_5 = "";
    HR_State_4 = "";
    HR_State_3 = "";
    HR_State_2 = "";
    HR_Desc = "";
    HR_State_1 = "";
    HR_State_0 = "";
    HR_Group = "0";
}

decision ai3
{
    label = "";
    position = (1185 419);
    states = ("OL" "OR" "L");
    HR_HTML_Desc = "";
    HR_LinkMode = "[C1_1_1:0][U1_1:0][U1:0][U2:0][U7:0][U7_1:0][u3:0]";
    HR_State_2 = "";
    HR_Desc = "";
    HR_State_1 = "";
    HR_State_0 = "";
    HR_Group = "0";
}

node s3
{
    label = "";
    position = (992 259);
    states = ("TL" "TR");
    HR_HTML_Desc = "";
    HR_LinkMode = "[U1:0][C4_1:0][C1_1:0][U1_1:0][U2:0][U7:0][U7_1:0][O3:0][Oj3:0][u3:0][o3:0][oj3:0][oi3:0]";
    HR_Desc = "";
    HR_State_1 = "";
    HR_State_0 = "";
    HR_Group = "0";
}

utility u3
{
    label = "";
    position = (1185 289);
    HR_HTML_Desc = "";
    HR_Desc = "";
    HR_Group = "0";
}

node s1
{
    label = "";
    position = (127 261);
    states = ("TL" "TR");
    HR_HTML_Desc = "";
    HR_LinkMode = "[O2:0][O1:0][S2:0][U1:0][C1:0][U3:0][C6:0][O3:0][C9:0][Mod1:0][Oj1:0][o1:0][u1:0][s2:0][mod1:0][oi1:0]";
    HR_Desc = "";
    HR_State_1 = "";
    HR_State_0 = "";
    HR_Group = "0";
}

node aj1
{
    label = "";
    position = (295 190);
    states = ("OL" "OR" "L");
    HR_LinkControlPoints = "";
    HR_HTML_Desc = "";
    HR_LinkMode = "[C9_1:0][C1:0][U3:0][C6:0][C4:0][D1:0][O2:0][S2:0][Mod2:0][OO1:0][Oj2:0][u1:0][o2:0][s2:0][mod2:0][oj2:0][oi2:0]";
    HR_Group = "0";
    HR_Desc = "";
    HR_State_2 = "";
    HR_State_1 = "";
    HR_State_0 = "";
}

node mod1
{
    label = "";
    position = (200 133);
    states = ("0");
    HR_LinkControlPoints = "";
    HR_State_4 = "";
    HR_State_3 = "";
    HR_State_2 = "";
    HR_LinkMode = "[C9_1:0][C1:0][C10:0][OD3:0][OD1:0][Mod2:0][OO1:0][Dj1:0][Oj2:0][aj1:0][mod2:0][oj2:0]";
    HR_HTML_Desc = "";
    HR_Group = "0";
    HR_Desc = "";
    HR_State_1 = "";
    HR_State_0 = "";
}

utility u2
{
    label = "";
    position = (736 295);
    HR_HTML_Desc = "";
    HR_Desc = "";
    HR_Group = "0";
}

node s2
{
    label = "";
    position = (571 261);
    states = ("TL" "TR");
    HR_LinkControlPoints = "";
    HR_HTML_Desc = "";
    HR_LinkMode = "[U7:0][C4:0][C6_1:0][C1:0][U2:0][U1:0][U1_1:0][O2:0][S3:0][OO1:0][Oj2:0][o2:0][u2:0][s3:0][oj2:0][oi2:0]";
    HR_State_0 = "";
    HR_State_1 = "";
    HR_Desc = "";
    HR_Group = "0";
}

decision ai2
{
    label = "";
    position = (736 419);
    states = ("OL" "OR" "L");
    HR_HTML_Desc = "";
    HR_LinkMode = "[D5_1:0][C4_1:0][C6_1:0][U7:0][U2:0][U1:0][U1_1:0][S3:0][D3:0][O3:0][u2:0][s3:0][a3:0][o3:0][oi3:0][ai3:0]";
    HR_State_0 = "";
    HR_State_1 = "";
    HR_Desc = "";
    HR_State_2 = "";
    HR_Group = "0";
}

node oi2
{
    label = "";
    position = (570 383);
    states = ("GLCL" "GLCR" "GLS" "GRCL" "GRCR" "GRS");
    HR_LinkControlPoints = "";
    HR_HTML_Desc = "";
    HR_LinkMode = "[D5:0][D2:0][D1:0][C2:0][D:0][S:0][S1_1:0][D1_1:0][a2:0][ai2:0]";
    HR_State_5 = "";
    HR_State_4 = "";
    HR_State_3 = "";
    HR_State_2 = "";
    HR_State_0 = "";
    HR_State_1 = "";
    HR_Desc = "";
    HR_Group = "0";
}

utility u1
{
    label = "";
    position = (296 297);
    HR_HTML_Desc = "";
    HR_Group = "0";
    HR_Desc = "";
}

decision ai1
{
    label = "";
    position = (296 420);
    states = ("OL" "OR" "L");
    HR_LinkControlPoints = "";
    HR_HTML_Desc = "A's decision";
    HR_LinkMode = "[C4:0][C6:0][D5:0][U3:0][D2:0][S2:0][U1:0][O2:0][u1:0][o2:0][a2:0][s2:0][oi2:0][ai2:0]";
    HR_State_2 = "";
    HR_Group = "0";
    HR_Desc = "A's decision";
    HR_State_1 = "";
    HR_State_0 = "";
}

node oi1
{
    label = "";
    position = (129 382);
    states = ("GLCL" "GLCR" "GLS" "GRCL" "GRCR" "GRS");
    HR_LinkControlPoints = "";
    HR_HTML_Desc = "";
    HR_LinkMode = "[S:0][D:0][C2:0][D1:0][a1:0][ai1:0]";
    HR_State_5 = "";
    HR_State_4 = "";
    HR_State_3 = "";
    HR_State_2 = "";
    HR_Group = "0";
    HR_Desc = "";
    HR_State_1 = "";
    HR_State_0 = "";
}

potential (oj3 | mod2 aj2 s3)
{
    data
     = (((( 0.5 0.5 )	%  mod2=0  aj2=OL  s3=TL
	  ( 0.5 0.5 ))	%  mod2=0  aj2=OL  s3=TR
	 (( 0.5 0.5 )	%  mod2=0  aj2=OR  s3=TL
	  ( 0.5 0.5 ))	%  mod2=0  aj2=OR  s3=TR
	 (( 0.85 0.15 )	%  mod2=0  aj2=L  s3=TL
	  ( 0.15 0.85 ))));	%  mod2=0  aj2=L  s3=TR
}

potential (oj2 | mod1 aj1 s2)
{
    data
     = (((( 0.625 0.375 )	%  mod1=0  aj1=OL  s2=TL
	  ( 0.5 0.5 ))	%  mod1=0  aj1=OL  s2=TR
	 (( 0.5 0.5 )	%  mod1=0  aj1=OR  s2=TL
	  ( 0.5 0.5 ))	%  mod1=0  aj1=OR  s2=TR
	 (( 0.85 0.15 )	%  mod1=0  aj1=L  s2=TL
	  ( 0.15 0.85 ))));	%  mod1=0  aj1=L  s2=TR
}

potential (aj3 | mod3)
{
    data
     = (( 0 0 1 ));	%  mod3=0
}

potential (mod3 | mod2 aj2 oj3)
{
    data
     = (((( 1 )	%  mod2=0  aj2=OL  oj3=GL
	  ( 1 ))	%  mod2=0  aj2=OL  oj3=GR
	 (( 1 )	%  mod2=0  aj2=OR  oj3=GL
	  ( 1 ))	%  mod2=0  aj2=OR  oj3=GR
	 (( 1 )	%  mod2=0  aj2=L  oj3=GL
	  ( 1 ))));	%  mod2=0  aj2=L  oj3=GR
}

potential (mod2 | mod1 aj1 oj2)
{
    data
     = (((( 1 )	%  mod1=0  aj1=OL  oj2=GL
	  ( 1 ))	%  mod1=0  aj1=OL  oj2=GR
	 (( 1 )	%  mod1=0  aj1=OR  oj2=GL
	  ( 1 ))	%  mod1=0  aj1=OR  oj2=GR
	 (( 1 )	%  mod1=0  aj1=L  oj2=GL
	  ( 1 ))));	%  mod1=0  aj1=L  oj2=GR
}

potential (aj2 | mod2)
{
    data
     = (( 0 0 1 ));	%  mod2=0
}

potential (oi3 | s3 aj2 ai2)
{
    data
     = (((( 0.166667 0.166667 0.166667 0.166667 0.166667 0.166667 )	%  s3=TL  aj2=OL  ai2=OL
	  ( 0.166667 0.166667 0.166667 0.166667 0.166667 0.166667 )	%  s3=TL  aj2=OL  ai2=OR
	  ( 0.765 0.0425 0.0425 0.135 0.0075 0.0075 ))	%  s3=TL  aj2=OL  ai2=L
	 (( 0.166667 0.166667 0.166667 0.166667 0.166667 0.166667 )	%  s3=TL  aj2=OR  ai2=OL
	  ( 0.166667 0.166667 0.166667 0.166667 0.166667 0.166667 )	%  s3=TL  aj2=OR  ai2=OR
	  ( 0.0425 0.765 0.0425 0.0075 0.135 0.0075 ))	%  s3=TL  aj2=OR  ai2=L
	 (( 0.166667 0.166667 0.166667 0.166667 0.166667 0.166667 )	%  s3=TL  aj2=L  ai2=OL
	  ( 0.166667 0.166667 0.166667 0.166667 0.166667 0.166667 )	%  s3=TL  aj2=L  ai2=OR
	  ( 0.0425 0.0425 0.765 0.0075 0.0075 0.135 )))	%  s3=TL  aj2=L  ai2=L
	((( 0.166667 0.166667 0.166667 0.166667 0.166667 0.166667 )	%  s3=TR  aj2=OL  ai2=OL
	  ( 0.166667 0.166667 0.166667 0.166667 0.166667 0.166667 )	%  s3=TR  aj2=OL  ai2=OR
	  ( 0.135 0.0075 0.0075 0.765 0.0425 0.0425 ))	%  s3=TR  aj2=OL  ai2=L
	 (( 0.166667 0.166667 0.166667 0.166667 0.166667 0.166667 )	%  s3=TR  aj2=OR  ai2=OL
	  ( 0.166667 0.166667 0.166667 0.166667 0.166667 0.166667 )	%  s3=TR  aj2=OR  ai2=OR
	  ( 0.0075 0.135 0.0075 0.0425 0.765 0.0425 ))	%  s3=TR  aj2=OR  ai2=L
	 (( 0.166667 0.166667 0.166667 0.166667 0.166667 0.166667 )	%  s3=TR  aj2=L  ai2=OL
	  ( 0.166667 0.166667 0.166667 0.166667 0.166667 0.166667 )	%  s3=TR  aj2=L  ai2=OR
	  ( 0.0075 0.0075 0.135 0.0425 0.0425 0.765 ))));	%  s3=TR  aj2=L  ai2=L
}

potential (ai3 | ai2 oi3)
{
    data
     = ((( 0.333333 0.333333 0.333333 )	%  ai2=OL  oi3=GLCL
	 ( 0.333333 0.333333 0.333333 )	%  ai2=OL  oi3=GLCR
	 ( 0.333333 0.333333 0.333333 )	%  ai2=OL  oi3=GLS
	 ( 0.333333 0.333333 0.333333 )	%  ai2=OL  oi3=GRCL
	 ( 0.333333 0.333333 0.333333 )	%  ai2=OL  oi3=GRCR
	 ( 0.333333 0.333333 0.333333 ))	%  ai2=OL  oi3=GRS
	(( 0.333333 0.333333 0.333333 )	%  ai2=OR  oi3=GLCL
	 ( 0.333333 0.333333 0.333333 )	%  ai2=OR  oi3=GLCR
	 ( 0.333333 0.333333 0.333333 )	%  ai2=OR  oi3=GLS
	 ( 0.333333 0.333333 0.333333 )	%  ai2=OR  oi3=GRCL
	 ( 0.333333 0.333333 0.333333 )	%  ai2=OR  oi3=GRCR
	 ( 0.333333 0.333333 0.333333 ))	%  ai2=OR  oi3=GRS
	(( 0.333333 0.333333 0.333333 )	%  ai2=L  oi3=GLCL
	 ( 0.333333 0.333333 0.333333 )	%  ai2=L  oi3=GLCR
	 ( 0.333333 0.333333 0.333333 )	%  ai2=L  oi3=GLS
	 ( 0.333333 0.333333 0.333333 )	%  ai2=L  oi3=GRCL
	 ( 0.333333 0.333333 0.333333 )	%  ai2=L  oi3=GRCR
	 ( 0.333333 0.333333 0.333333 )));	%  ai2=L  oi3=GRS
}

potential (s3 | aj2 s2 ai2)
{
    data
     = (((( 0.5 0.5 )	%  aj2=OL  s2=TL  ai2=OL
	  ( 0.5 0.5 )	%  aj2=OL  s2=TL  ai2=OR
	  ( 0.5 0.5 ))	%  aj2=OL  s2=TL  ai2=L
	 (( 0.5 0.5 )	%  aj2=OL  s2=TR  ai2=OL
	  ( 0.5 0.5 )	%  aj2=OL  s2=TR  ai2=OR
	  ( 0.5 0.5 )))	%  aj2=OL  s2=TR  ai2=L
	((( 0.5 0.5 )	%  aj2=OR  s2=TL  ai2=OL
	  ( 0.5 0.5 )	%  aj2=OR  s2=TL  ai2=OR
	  ( 0.5 0.5 ))	%  aj2=OR  s2=TL  ai2=L
	 (( 0.5 0.5 )	%  aj2=OR  s2=TR  ai2=OL
	  ( 0.5 0.5 )	%  aj2=OR  s2=TR  ai2=OR
	  ( 0.5 0.5 )))	%  aj2=OR  s2=TR  ai2=L
	((( 0.5 0.5 )	%  aj2=L  s2=TL  ai2=OL
	  ( 0.5 0.5 )	%  aj2=L  s2=TL  ai2=OR
	  ( 1 0 ))	%  aj2=L  s2=TL  ai2=L
	 (( 0.5 0.5 )	%  aj2=L  s2=TR  ai2=OL
	  ( 0.5 0.5 )	%  aj2=L  s2=TR  ai2=OR
	  ( 0 1 ))));	%  aj2=L  s2=TR  ai2=L
}

potential (u3 | aj3 s3 ai3)
{
    data
     = ((( -50	%  aj3=OL  s3=TL  ai3=OL
	   60	%  aj3=OL  s3=TL  ai3=OR
	   49 )	%  aj3=OL  s3=TL  ai3=L
	 ( 5	%  aj3=OL  s3=TR  ai3=OL
	   -105	%  aj3=OL  s3=TR  ai3=OR
	   -6 ))	%  aj3=OL  s3=TR  ai3=L
	(( -105	%  aj3=OR  s3=TL  ai3=OL
	   5	%  aj3=OR  s3=TL  ai3=OR
	   -6 )	%  aj3=OR  s3=TL  ai3=L
	 ( 60	%  aj3=OR  s3=TR  ai3=OL
	   -50	%  aj3=OR  s3=TR  ai3=OR
	   49 ))	%  aj3=OR  s3=TR  ai3=L
	(( -99.5	%  aj3=L  s3=TL  ai3=OL
	   10.5	%  aj3=L  s3=TL  ai3=OR
	   -0.5 )	%  aj3=L  s3=TL  ai3=L
	 ( 10.5	%  aj3=L  s3=TR  ai3=OL
	   -99.5	%  aj3=L  s3=TR  ai3=OR
	   -0.5 )));	%  aj3=L  s3=TR  ai3=L
}

potential (s1)
{
    data = ( 0.5 0.5 );
}

potential (aj1 | mod1)
{
    data
     = (( 0 0 1 ));	%  mod1=0
}

potential (mod1 | s1)
{
    data
     = (( 1 )	%  s1=TL
	( 1 ));	%  s1=TR
}

potential (u2 | aj2 s2 ai2)
{
    data
     = ((( -50	%  aj2=OL  s2=TL  ai2=OL
	   60	%  aj2=OL  s2=TL  ai2=OR
	   49 )	%  aj2=OL  s2=TL  ai2=L
	 ( 5	%  aj2=OL  s2=TR  ai2=OL
	   -105	%  aj2=OL  s2=TR  ai2=OR
	   -6 ))	%  aj2=OL  s2=TR  ai2=L
	(( -105	%  aj2=OR  s2=TL  ai2=OL
	   5	%  aj2=OR  s2=TL  ai2=OR
	   -6 )	%  aj2=OR  s2=TL  ai2=L
	 ( 60	%  aj2=OR  s2=TR  ai2=OL
	   -50	%  aj2=OR  s2=TR  ai2=OR
	   49 ))	%  aj2=OR  s2=TR  ai2=L
	(( -99.5	%  aj2=L  s2=TL  ai2=OL
	   10.5	%  aj2=L  s2=TL  ai2=OR
	   -0.5 )	%  aj2=L  s2=TL  ai2=L
	 ( 10.5	%  aj2=L  s2=TR  ai2=OL
	   -99.5	%  aj2=L  s2=TR  ai2=OR
	   -0.5 )));	%  aj2=L  s2=TR  ai2=L
}

potential (s2 | aj1 s1 ai1)
{
    data
     = (((( 0.5 0.5 )	%  aj1=OL  s1=TL  ai1=OL
	  ( 0.5 0.5 )	%  aj1=OL  s1=TL  ai1=OR
	  ( 0.5 0.5 ))	%  aj1=OL  s1=TL  ai1=L
	 (( 0.5 0.5 )	%  aj1=OL  s1=TR  ai1=OL
	  ( 0.5 0.5 )	%  aj1=OL  s1=TR  ai1=OR
	  ( 0.5 0.5 )))	%  aj1=OL  s1=TR  ai1=L
	((( 0.5 0.5 )	%  aj1=OR  s1=TL  ai1=OL
	  ( 0.5 0.5 )	%  aj1=OR  s1=TL  ai1=OR
	  ( 0.5 0.5 ))	%  aj1=OR  s1=TL  ai1=L
	 (( 0.5 0.5 )	%  aj1=OR  s1=TR  ai1=OL
	  ( 0.5 0.5 )	%  aj1=OR  s1=TR  ai1=OR
	  ( 0.5 0.5 )))	%  aj1=OR  s1=TR  ai1=L
	((( 0.5 0.5 )	%  aj1=L  s1=TL  ai1=OL
	  ( 0.5 0.5 )	%  aj1=L  s1=TL  ai1=OR
	  ( 1 0 ))	%  aj1=L  s1=TL  ai1=L
	 (( 0.5 0.5 )	%  aj1=L  s1=TR  ai1=OL
	  ( 0.5 0.5 )	%  aj1=L  s1=TR  ai1=OR
	  ( 0 1 ))));	%  aj1=L  s1=TR  ai1=L
}

potential (ai2 | ai1 oi2)
{
    data
     = ((( 0.333333 0.333333 0.333333 )	%  ai1=OL  oi2=GLCL
	 ( 0.333333 0.333333 0.333333 )	%  ai1=OL  oi2=GLCR
	 ( 0.333333 0.333333 0.333333 )	%  ai1=OL  oi2=GLS
	 ( 0.333333 0.333333 0.333333 )	%  ai1=OL  oi2=GRCL
	 ( 0.333333 0.333333 0.333333 )	%  ai1=OL  oi2=GRCR
	 ( 0.333333 0.333333 0.333333 ))	%  ai1=OL  oi2=GRS
	(( 0.333333 0.333333 0.333333 )	%  ai1=OR  oi2=GLCL
	 ( 0.333333 0.333333 0.333333 )	%  ai1=OR  oi2=GLCR
	 ( 0.333333 0.333333 0.333333 )	%  ai1=OR  oi2=GLS
	 ( 0.333333 0.333333 0.333333 )	%  ai1=OR  oi2=GRCL
	 ( 0.333333 0.333333 0.333333 )	%  ai1=OR  oi2=GRCR
	 ( 0.333333 0.333333 0.333333 ))	%  ai1=OR  oi2=GRS
	(( 0.333333 0.333333 0.333333 )	%  ai1=L  oi2=GLCL
	 ( 0.333333 0.333333 0.333333 )	%  ai1=L  oi2=GLCR
	 ( 0.333333 0.333333 0.333333 )	%  ai1=L  oi2=GLS
	 ( 0.333333 0.333333 0.333333 )	%  ai1=L  oi2=GRCL
	 ( 0.333333 0.333333 0.333333 )	%  ai1=L  oi2=GRCR
	 ( 0.230769 0.230769 0.538462 )));	%  ai1=L  oi2=GRS
}

potential (oi2 | s2 aj1 ai1)
{
    data
     = (((( 0.166667 0.166667 0.166667 0.166667 0.166667 0.166667 )	%  s2=TL  aj1=OL  ai1=OL
	  ( 0.166667 0.166667 0.166667 0.166667 0.166667 0.166667 )	%  s2=TL  aj1=OL  ai1=OR
	  ( 0.765 0.0425 0.0425 0.135 0.0075 0.0075 ))	%  s2=TL  aj1=OL  ai1=L
	 (( 0.166667 0.166667 0.166667 0.166667 0.166667 0.166667 )	%  s2=TL  aj1=OR  ai1=OL
	  ( 0.166667 0.166667 0.166667 0.166667 0.166667 0.166667 )	%  s2=TL  aj1=OR  ai1=OR
	  ( 0.0425 0.765 0.0425 0.0075 0.135 0.0075 ))	%  s2=TL  aj1=OR  ai1=L
	 (( 0.166667 0.166667 0.166667 0.166667 0.166667 0.166667 )	%  s2=TL  aj1=L  ai1=OL
	  ( 0.166667 0.166667 0.166667 0.166667 0.166667 0.166667 )	%  s2=TL  aj1=L  ai1=OR
	  ( 0.0425 0.0425 0.765 0.0075 0.0075 0.135 )))	%  s2=TL  aj1=L  ai1=L
	((( 0.166667 0.166667 0.166667 0.166667 0.166667 0.166667 )	%  s2=TR  aj1=OL  ai1=OL
	  ( 0.166667 0.166667 0.166667 0.166667 0.166667 0.166667 )	%  s2=TR  aj1=OL  ai1=OR
	  ( 0.135 0.0075 0.0075 0.765 0.0425 0.0425 ))	%  s2=TR  aj1=OL  ai1=L
	 (( 0.166667 0.166667 0.166667 0.166667 0.166667 0.166667 )	%  s2=TR  aj1=OR  ai1=OL
	  ( 0.166667 0.166667 0.166667 0.166667 0.166667 0.166667 )	%  s2=TR  aj1=OR  ai1=OR
	  ( 0.0075 0.135 0.0075 0.0425 0.765 0.0425 ))	%  s2=TR  aj1=OR  ai1=L
	 (( 0.166667 0.166667 0.166667 0.166667 0.166667 0.166667 )	%  s2=TR  aj1=L  ai1=OL
	  ( 0.166667 0.166667 0.166667 0.166667 0.166667 0.166667 )	%  s2=TR  aj1=L  ai1=OR
	  ( 0.0075 0.0075 0.135 0.0425 0.0425 0.765 ))));	%  s2=TR  aj1=L  ai1=L
}

potential (u1 | aj1 s1 ai1)
{
    data
     = ((( -50	%  aj1=OL  s1=TL  ai1=OL
	   60	%  aj1=OL  s1=TL  ai1=OR
	   49 )	%  aj1=OL  s1=TL  ai1=L
	 ( 5	%  aj1=OL  s1=TR  ai1=OL
	   -105	%  aj1=OL  s1=TR  ai1=OR
	   -6 ))	%  aj1=OL  s1=TR  ai1=L
	(( -105	%  aj1=OR  s1=TL  ai1=OL
	   5	%  aj1=OR  s1=TL  ai1=OR
	   -6 )	%  aj1=OR  s1=TL  ai1=L
	 ( 60	%  aj1=OR  s1=TR  ai1=OL
	   -50	%  aj1=OR  s1=TR  ai1=OR
	   49 ))	%  aj1=OR  s1=TR  ai1=L
	(( -99.5	%  aj1=L  s1=TL  ai1=OL
	   10.5	%  aj1=L  s1=TL  ai1=OR
	   -0.5 )	%  aj1=L  s1=TL  ai1=L
	 ( 10.5	%  aj1=L  s1=TR  ai1=OL
	   -99.5	%  aj1=L  s1=TR  ai1=OR
	   -0.5 )));	%  aj1=L  s1=TR  ai1=L
}

potential (ai1 | oi1)
{
    data
     = (( 0.333333 0.333333 0.333333 )	%  oi1=GLCL
	( 0.333333 0.333333 0.333333 )	%  oi1=GLCR
	( 0.333333 0.333333 0.333333 )	%  oi1=GLS
	( 0.333333 0.333333 0.333333 )	%  oi1=GRCL
	( 0.333333 0.333333 0.333333 )	%  oi1=GRCR
	( 0.230769 0.538462 0.230769 ));	%  oi1=GRS
}

potential (oi1 | s1)
{
    data
     = (( 0.283333 0.283333 0.283333 0.0500001 0.0500001 0.0500001 )	%  s1=TL
	( 0.0500001 0.0500001 0.0500001 0.283333 0.283333 0.283333 ));	%  s1=TR
}
