net
{
    node_size = (80 40);
    HR_ToolBar_CDVT = "0";
    HR_Html_Desc = "0";
    HR_Groups_IDs = "";
    HR_Node_Label_Style = "0";
    HR_Monitor_Utility_Arrange = "0";
    HR_Monitor_Chance_Utility = "1";
    HR_Compile_SaveToMemory = "0";
    HR_Desc = "";
    HR_OOBN_CheckConsistency = "1";
    HR_OOBN_FitExpand = "1";
    HR_Zoom_ZoomFactor = "100";
    HR_Groups_GroupColors = "";
    HR_Groups_GroupNames = "";
    HR_Groups_UserGroupsNo = "0";
    HR_Color_Interface = "-1";
    HR_Color_Instance = "-1";
    HR_Color_Utility = "36";
    HR_Color_Decision = "17";
    HR_Color_ContinuousChance = "-1";
    HR_Color_DiscreteChance = "16";
    HR_Monitor_InitSD = "2";
    HR_Monitor_InitStates = "5";
    HR_Monitor_OpenGraph = "0";
    HR_Monitor_GraphPrecision = "100";
    HR_Monitor_AutoUpdGraph = "0";
    HR_Compile_MaxMinimalSeparators = "100000";
    HR_Compile_ApproxEpsilon = "1.0E-5";
    HR_Compile_Approximate = "0";
    HR_Compile_Compress = "0";
    HR_Compile_TriangMethod = "0";
    HR_Propagate_AutoNormal = "1";
    HR_Propagate_AutoSum = "1";
    HR_Propagate_Auto = "1";
    HR_Font_Italic = "0";
    HR_Font_Weight = "400";
    HR_Font_Size = "-12";
    HR_Font_Name = "Arial";
    HR_Grid_GridShow = "0";
    HR_Grid_GridSnap = "0";
    HR_Grid_Y = "40";
    HR_Grid_X = "40";
}

node oj1
{
    label = "";
    position = (290 284);
    states = ("GL" "GR");
    HR_LinkControlPoints = "";
    HR_HTML_Desc = "";
    HR_Group = "0";
    HR_Desc = "";
    HR_State_1 = "";
    HR_State_0 = "";
    HR_LinkMode = "[D13:0][D1:0][a1:0][aj1:0]";
}

node s1
{
    label = "";
    position = (290 151);
    states = ("TL" "TR");
    HR_HTML_Desc = "";
    HR_Group = "0";
    HR_Desc = "";
    HR_State_1 = "";
    HR_State_0 = "";
    HR_LinkMode = "[C6:0][U9:0][C12:0][S2:0][U1:0][O1:0][s2:0][u1:0][o1:0][oj1:0]";
}

decision aj1
{
    label = "";
    position = (435 319);
    states = ("OL" "OR" "L");
    HR_LinkControlPoints = "";
    HR_HTML_Desc = "";
    HR_Group = "0";
    HR_Desc = "";
    HR_State_2 = "";
    HR_State_1 = "";
    HR_State_0 = "";
    HR_LinkMode = "[C4:0][D5:0][C6:0][U9:0][O2:0][D2:0][S2:0][U1:0][o2:0][a2:0][s2:0][u1:0][oj2:0][aj2:0]";
}

utility u1
{
    label = "";
    position = (434 209);
    HR_Group = "0";
    HR_HTML_Desc = "";
    HR_Desc = "";
}

node oj3
{
    label = "";
    position = (922 276);
    states = ("GL" "GR");
    HR_HTML_Desc = "";
    HR_LinkMode = "[D10:0][D1_1:0][S1_1:0][S:0][D:0][C2:0][D1:0][D2:0][D2_1:0][D3:0][a3:0][aj3:0]";
    HR_State_5 = "";
    HR_State_4 = "";
    HR_State_3 = "";
    HR_State_2 = "";
    HR_Desc = "";
    HR_State_1 = "";
    HR_State_0 = "";
    HR_Group = "0";
}

node s3
{
    label = "";
    position = (922 151);
    states = ("TL" "TR");
    HR_HTML_Desc = "";
    HR_LinkMode = "[C14:0][U11:0][U2_1:0][O2_1:0][U1_1:0][U1:0][U2:0][O2:0][U3:0][O3:0][u3:0][o3:0][oj3:0]";
    HR_Desc = "";
    HR_State_1 = "";
    HR_State_0 = "";
    HR_Group = "0";
}

utility u3
{
    label = "";
    position = (1045 188);
    HR_HTML_Desc = "";
    HR_Desc = "";
    HR_Group = "0";
}

decision aj3
{
    label = "";
    position = (1046 318);
    states = ("OL" "OR" "L");
    HR_HTML_Desc = "";
    HR_LinkMode = "[U11:0][U1_1:0][U1:0][U2:0][U2_1:0][U3:0][u3:0]";
    HR_State_2 = "";
    HR_Desc = "";
    HR_State_1 = "";
    HR_State_0 = "";
    HR_Group = "0";
}

utility u2
{
    label = "";
    position = (748 196);
    HR_HTML_Desc = "";
    HR_Desc = "";
    HR_Group = "0";
}

node s2
{
    label = "";
    position = (607 151);
    states = ("TL" "TR");
    HR_HTML_Desc = "";
    HR_LinkMode = "[C13:0][U7:0][C4:0][U2:0][S2_1:0][O2:0][U1:0][U1_1:0][S3:0][o2:0][u2:0][s3:0][oj2:0]";
    HR_State_0 = "";
    HR_State_1 = "";
    HR_Desc = "";
    HR_Group = "0";
}

decision aj2
{
    label = "";
    position = (748 319);
    states = ("OL" "OR" "L");
    HR_HTML_Desc = "";
    HR_LinkMode = "[C14:0][C13:0][D10:0][U7:0][O2_1:0][S2_1:0][D2_1:0][U2:0][U1:0][U1_1:0][D3:0][S3:0][O3:0][u2:0][a3:0][s3:0][o3:0][aj3:0][oj3:0]";
    HR_State_0 = "";
    HR_State_1 = "";
    HR_Desc = "";
    HR_State_2 = "";
    HR_Group = "0";
}

node oj2
{
    label = "";
    position = (607 285);
    states = ("GL" "GR");
    HR_LinkControlPoints = "";
    HR_HTML_Desc = "";
    HR_LinkMode = "[D5:0][D2:0][D1:0][C2:0][D:0][S:0][S1_1:0][D1_1:0][a2:0][aj2:0]";
    HR_State_5 = "";
    HR_State_4 = "";
    HR_State_3 = "";
    HR_State_2 = "";
    HR_State_0 = "";
    HR_State_1 = "";
    HR_Desc = "";
    HR_Group = "0";
}

potential (oj1 | s1)
{
    data
     = (( 0.6 0.4 )	%  s1=TL
	( 0.4 0.6 ));	%  s1=TR
}

potential (s1)
{
    data = ( 0.5 0.5 );
}

potential (aj1 | oj1)
{
    data
     = (( 1 1 1 )	%  oj1=GL
	( 1 1 1 ));	%  oj1=GR
}

potential (u1 | s1 aj1)
{
    data
     = (( -100	%  s1=TL  aj1=OL
	  10	%  s1=TL  aj1=OR
	  -1 )	%  s1=TL  aj1=L
	( 10	%  s1=TR  aj1=OL
	  -100	%  s1=TR  aj1=OR
	  -1 ));	%  s1=TR  aj1=L
}

potential (oj3 | s3 aj2)
{
    data
     = ((( 1 1 )	%  s3=TL  aj2=OL
	 ( 1 1 )	%  s3=TL  aj2=OR
	 ( 0.6 0.4 ))	%  s3=TL  aj2=L
	(( 1 1 )	%  s3=TR  aj2=OL
	 ( 1 1 )	%  s3=TR  aj2=OR
	 ( 0.4 0.6 )));	%  s3=TR  aj2=L
}

potential (s3 | s2 aj2)
{
    data
     = ((( 0.5 0.5 )	%  s2=TL  aj2=OL
	 ( 0.5 0.5 )	%  s2=TL  aj2=OR
	 ( 1 0 ))	%  s2=TL  aj2=L
	(( 0.5 0.5 )	%  s2=TR  aj2=OL
	 ( 0.5 0.5 )	%  s2=TR  aj2=OR
	 ( 0 1 )));	%  s2=TR  aj2=L
}

potential (u3 | s3 aj3)
{
    data
     = (( -100	%  s3=TL  aj3=OL
	  10	%  s3=TL  aj3=OR
	  -1 )	%  s3=TL  aj3=L
	( 10	%  s3=TR  aj3=OL
	  -100	%  s3=TR  aj3=OR
	  -1 ));	%  s3=TR  aj3=L
}

potential (aj3 | aj2 oj3)
{
    data
     = ((( 1 1 1 )	%  aj2=OL  oj3=GL
	 ( 1 1 1 ))	%  aj2=OL  oj3=GR
	(( 1 1 1 )	%  aj2=OR  oj3=GL
	 ( 1 1 1 ))	%  aj2=OR  oj3=GR
	(( 1 1 1 )	%  aj2=L  oj3=GL
	 ( 1 1 1 )));	%  aj2=L  oj3=GR
}

potential (u2 | s2 aj2)
{
    data
     = (( -100	%  s2=TL  aj2=OL
	  100	%  s2=TL  aj2=OR
	  -1 )	%  s2=TL  aj2=L
	( 100	%  s2=TR  aj2=OL
	  -100	%  s2=TR  aj2=OR
	  -1 ));	%  s2=TR  aj2=L
}

potential (s2 | s1 aj1)
{
    data
     = ((( 0.5 0.5 )	%  s1=TL  aj1=OL
	 ( 0.5 0.5 )	%  s1=TL  aj1=OR
	 ( 1 0 ))	%  s1=TL  aj1=L
	(( 0.5 0.5 )	%  s1=TR  aj1=OL
	 ( 0.5 0.5 )	%  s1=TR  aj1=OR
	 ( 0 1 )));	%  s1=TR  aj1=L
}

potential (aj2 | aj1 oj2)
{
    data
     = ((( 1 1 1 )	%  aj1=OL  oj2=GL
	 ( 1 1 1 ))	%  aj1=OL  oj2=GR
	(( 1 1 1 )	%  aj1=OR  oj2=GL
	 ( 1 1 1 ))	%  aj1=OR  oj2=GR
	(( 1 1 1 )	%  aj1=L  oj2=GL
	 ( 1 1 1 )));	%  aj1=L  oj2=GR
}

potential (oj2 | s2 aj1)
{
    data
     = ((( 1 1 )	%  s2=TL  aj1=OL
	 ( 1 1 )	%  s2=TL  aj1=OR
	 ( 0.6 0.4 ))	%  s2=TL  aj1=L
	(( 1 1 )	%  s2=TR  aj1=OL
	 ( 1 1 )	%  s2=TR  aj1=OR
	 ( 0.4 0.6 )));	%  s2=TR  aj1=L
}
